#Parameter,Value,Dist Param,DIST TYPE,0=NORMAL,1=UNIFORM
rho0,1.717,0.0675,0,,
e0,0.049505,0.007715,0,,
W,0.34,0.03,0,,
B1,5.242,0.598633,0,,
C1,7.2114,0.30375,0,,
B2,0.07678,0.036527,0,,
C2,1.8887,0.34415,0,,
DetVel,0.798,0.0235,0,,
